1 10 20
100 200 125
201 210 89
900 1000 174
999999 999999 259
1 1 1
1 999999 525
10 1 20
879409 161011 525
597645 163987 470
277540 900101 525
956835 863338 507
675297 860180 525
789525 88823 509
145314 110400 375
214711 741860 509
381608 737727 509
139077 433163 449
536380 311996 470
718668 896418 525
999320 269507 525
270099 338796 407
354958 765694 509
231045 230255 443
395155 922284 525
615554 30619 470
426680 831302 509
955730 134036 525
30436 413544 449
843617 184056 525
601727 110611 470
683723 887860 525
601553 314039 470
975748 822886 525
775540 558347 509
273440 895909 525
424167 591822 470
447421 673779 509
5473 251038 443
5303 414479 449
4688 12418 268
7285 857212 525
5413 163774 383
7686 180459 383
2396 817198 509
9452 396280 443
2035 690089 509
5062 487228 449
2280 200944 383
7455 384790 443
8578 621682 470
6523 589996 470
3627 567635 470
5193 251278 443
4449 348933 443
2031 827613 509
2698 349932 443
182 919756 525
1274 39874 324
7477 160681 383
3402 956680 525
6209 654036 509
9435 625368 470
3422 981083 525
9600 677617 509
4079 5513 215
7930 264104 443
4039 558539 470
2028 486850 449
7130 641427 509
4359 785926 509
1420 569057 470
10 596920 470
4272 223791 386
6576 955377 525
4582 400713 443
448 896380 525
5805 644416 509
4064 901919 525
23 776711 509
4362 589843 470
9824 897556 525
7925 524369 470
5956 444067 449
9020 659520 509
1514 471000 449
8813 243680 443
4344 643636 509
3521 798329 509
1872 196077 383
7554 436463 449
5508 34755 311
2454 815640 509
4558 710675 509
3903 595627 470
5009 138740 354
5245 434248 449
5906 631823 509
6493 265334 443
8936 394276 443
2121 43765 324
6690 472751 449
9048 513719 470
6229 402921 443
8183 382663 443
2103 615389 470
3961 786692 509
896 952941 525
559 92169 351
418 81729 351
88 91569 351
706 1523 182
347 3925 238
417 41039 324
5 92155 351
548 74799 340
464 87751 351
375 8186 262
396 57228 340
197 26351 282
328 1887 182
335 43903 324
284 88377 351
667 14650 276
456 63768 340
605 24611 282
213 59225 340
422 526 142
432 77759 351
159 59224 340
157 79345 351
740 35532 311
942 79993 351
198 99139 351
380 95874 351
656 599 145
792 40796 324
177 10156 262
573 38737 324
422 1157 179
92 29176 308
781 71298 340
756 15368 276
384 22322 279
322 34090 308
397 60533 340
807 14871 276
941 24532 282
86 13551 276
732 68768 340
992 94329 351
774 35743 324
221 39105 324
781 23196 279
80 45453 324
370 24471 282
394 71367 340
879 24348 282
790 8122 262
527 6353 262
286 2830 209
429 13 144
828 9083 262
710 5525 238
173 1548 182
76 1655 182
12 2633 209
814 8377 262
367 8206 262
942 5916 238
759 6218 262
607 6347 262
607 6299 262
93 680 145
932 1771 182
339 2302 183
115 4092 238
324 2313 183
60 8351 262
261 2844 209
944 848 179
733 415 171
137 1882 182
139 536 144
285 759 171
963 1188 182
948 2094 182
829 6797 262
523 3440 217
159 1495 182
630 2323 183
936 9686 262
712 9609 262
120 3112 217
803 8499 262
803 7125 262
969 4492 238
126 7498 262
296 9811 262
267 1374 182
533 7988 262
384 4734 238
233 7951 262
694 7688 262
276 4602 238
682 5714 238
158 3723 238
256 2324 183
