1 10 20
100 200 125
201 210 89
900 1000 174
126 1097 179
361 1677 182
425 1015 179
317 1270 182
59 2455 183
210 1469 182
209 1887 182
435 1923 182
110 1427 182
608 2102 182
221 2963 217
606 1279 182
567 1890 182
991 1357 182
827 1141 179
933 1097 174
332 1682 182
703 2117 182
475 1231 182
647 1143 179
326 2336 183
516 1379 182
339 2505 209
626 2905 209
157 2841 209
5 2168 182
148 2320 183
391 2522 209
531 2355 183
992 1510 182
276 2517 209
24 1624 182
848 2362 183
787 2597 209
234 1126 179
529 2433 183
560 1144 179
584 2720 209
430 1066 179
291 1579 182
318 2211 182
90 2213 182
888 1777 182
872 1271 182
82 2748 209
536 2780 209
426 2013 182
365 1666 182
48 1713 182
276 2717 209
9044 13970 276
7793 16555 276
5860 10142 262
2663 19276 279
4025 12276 268
9358 19157 279
2640 18455 279
5232 16049 276
5299 19303 279
7887 14240 276
8861 16111 276
295 10239 262
5951 15985 276
6473 12909 268
385 11523 268
7837 12048 268
2243 16860 276
588 14703 276
9493 10893 255
2949 19972 279
7850 14582 276
5658 15930 276
6080 14020 276
4283 10690 262
5392 14805 276
2950 12770 268
3686 12376 268
4112 17389 276
9955 13084 268
3842 17779 279
874 16729 276
5724 16224 276
3505 19394 279
5476 18526 279
3981 13454 276
9012 19733 279
8018 15074 276
2477 17969 279
3656 18271 279
468 12595 268
7591 10206 260
8074 17727 279
9636 15084 276
7373 18425 279
7435 10591 260
1304 14460 276
1172 15838 276
6139 12826 268
2515 14216 276
