1 10 20
100 200 125
201 210 89
900 1000 174
838 3100 217
315688 916828 525
195930 337986 443
398158 614309 470
162007 322802 443
358702 821887 509
166300 539128 470
234592 674919 509
595535 601721 403
69795 919390 525
90212 693746 509
94344 185139 383
208452 814760 509
393986 423290 449
27095 851546 525
736056 941927 525
554836 875984 525
234806 355222 441
415743 833414 509
38377 157744 383
6403 769224 509
775999 802733 468
581023 608677 434
831904 989837 525
521159 864382 525
340427 721955 509
243126 355180 441
984925 989998 427
260492 362196 441
539525 981226 525
609339 930714 525
147373 708497 509
35546 426064 449
373683 399659 436
618114 736197 509
170352 710041 509
401201 967216 525
189075 922000 525
665100 920293 525
732107 954824 525
473184 748899 509
192677 217144 386
116563 629720 509
50511 926353 525
234709 389709 441
354882 674963 509
507770 973335 525
95198 657548 509
639306 680248 442
963964 966654 365
491527 553691 470
813332 951867 525
925665 953974 507
19401 699197 509
25396 958799 525
547252 928080 525
418658 522722 470
655097 911559 525
78956 105711 341
674088 934098 525
97107 321143 443
194514 897508 525
166146 787898 509
81563 670556 509
463021 622949 470
578911 959921 525
452054 854710 525
22148 468658 449
455868 955361 525
585800 675560 509
314968 697114 509
212076 827168 509
249795 562498 470
381119 535664 470
306944 945602 525
472079 980138 525
531358 997649 525
686121 908758 525
206454 997076 525
208108 799660 509
264459 508015 449
412982 838283 525
154446 225016 386
109123 797367 509
288186 734651 509
353088 584658 470
454283 711296 509
348226 551188 470
5788 774056 509
161715 856645 525
603289 945992 525
266263 335272 407
265020 696256 509
460689 799600 509
531469 976397 525
248008 674241 509
143518 676620 509
31247 491961 449
727050 911565 525
217004 738111 509
465781 857360 525
690427 786238 504
187331 351994 443
148496 908318 525
159857 531950 470
356589 639124 509
223663 513174 470
363928 911646 525
532967 864943 525
416586 923185 525
220080 975154 525
53228 581693 470
233394 647377 509
483420 851962 525
328193 952395 525
415613 461245 418
754732 957240 525
262399 625677 470
537292 664593 509
626551 630190 341
724273 870607 525
121785 154033 375
546211 801117 509
198187 922142 525
170449 308836 443
92491 222297 386
846766 961151 507
304519 920228 525
593849 613142 403
141894 756838 509
505955 955542 525
288567 759140 509
63795 396978 443
628287 841367 525
482316 884223 525
444977 499875 444
84229 750506 509
288026 439279 449
284785 591502 470
719 563452 470
136323 551673 470
127955 374876 443
877714 977808 507
474112 553672 470
658662 714780 504
42836 174639 383
342031 800358 509
333686 695801 509
605915 824758 509
675070 754494 504
359097 842668 525
1 10000 262
