....................
----------------------------------------------------------------------
Ran 20 tests in 0.204s

OK
Name             Stmts   Miss Branch BrPart  Cover   Missing
------------------------------------------------------------
Collatz.py          34      0     16      0   100%
TestCollatz.py      86      0      0      0   100%
------------------------------------------------------------
TOTAL              120      0     16      0   100%
