.......................
----------------------------------------------------------------------
Ran 23 tests in 0.076s

OK
Name             Stmts   Miss Branch BrPart  Cover   Missing
------------------------------------------------------------
Collatz.py          33      0     16      0   100%
TestCollatz.py     100      0      0      0   100%
------------------------------------------------------------
TOTAL              133      0     16      0   100%
