...................
----------------------------------------------------------------------
Ran 19 tests in 0.010s

OK
Name             Stmts   Miss Branch BrPart  Cover   Missing
------------------------------------------------------------
Collatz.py          46      0     18      1    98%   68->80
TestCollatz.py      83      0      0      0   100%
------------------------------------------------------------
TOTAL              129      0     18      1    99%
